[gd_scene load_steps=4 format=3 uid="uid://dor60phsxvdo0"]

[ext_resource type="Script" path="res://scenes/map/Connection.gd" id="1_omekt"]
[ext_resource type="Texture2D" uid="uid://4qyaiilw3oml" path="res://assets/sprites/map/connection_texture.png" id="2_tfax8"]

[sub_resource type="Curve" id="Curve_knqky"]
_data = [Vector2(0, 0.981818), 0.0, 0.0, 0, 0, Vector2(1, 0.281818), 0.0, 0.0, 0, 0]
point_count = 2

[node name="Connection" type="Line2D"]
points = PackedVector2Array(126, -5)
width = 20.0
width_curve = SubResource("Curve_knqky")
texture = ExtResource("2_tfax8")
texture_mode = 1
script = ExtResource("1_omekt")
