[gd_scene load_steps=4 format=3 uid="uid://3grglxt8omij"]

[ext_resource type="Script" path="res://UiSounds.gd" id="1_ie0rd"]
[ext_resource type="AudioStream" uid="uid://bc7qsukojfqvx" path="res://assets/sounds/blipSelect.wav" id="2_g78b4"]
[ext_resource type="AudioStream" uid="uid://cn00llx7oalkl" path="res://assets/sounds/click.wav" id="3_mpo25"]

[node name="UiSounds" type="Node2D"]
script = ExtResource("1_ie0rd")

[node name="HoverSoundPlayer" type="AudioStreamPlayer" parent="."]
stream = ExtResource("2_g78b4")
volume_db = -26.511

[node name="ClickSoundPlayer" type="AudioStreamPlayer" parent="."]
stream = ExtResource("3_mpo25")
